…
Como tenemos datos que son texto y otros numéricos, separamos las
columnas numéricas de las columnas que contienen texto para
transformarlos

``` r
cols_char <- part_fem %>% select(3:4) %>%
  mutate_if(is.character, as.factor)
cols_char
```

    ## # A tibble: 222 x 2
    ##    `país Name`         `país Code`
    ##    <fct>               <fct>      
    ##  1 Afghanistan         AFG        
    ##  2 Albania             ALB        
    ##  3 Algeria             DZA        
    ##  4 American Samoa      ASM        
    ##  5 Andorra             AND        
    ##  6 Angola              AGO        
    ##  7 Antigua and Barbuda ATG        
    ##  8 Argentina           ARG        
    ##  9 Armenia             ARM        
    ## 10 Aruba               ABW        
    ## # ... with 212 more rows
…
Veamos nuestro nuevo conjunto de datos

``` r
conosur
```

    ## # A tibble: 30 x 3
    ##    Country   Year  `Female Ratio`
    ##    <fct>     <chr>          <dbl>
    ##  1 Argentina 2015            65.2
    ##  2 Argentina 2016            66.3
    ##  3 Argentina 2017            67.3
    ##  4 Argentina 2018            67.2
    ##  5 Argentina 2019            67.2
    ##  6 Brazil    2015            70.8
    ##  7 Brazil    2016            71.1
    ##  8 Brazil    2017            72.6
    ##  9 Brazil    2018            72.6
    ## 10 Brazil    2019            72.6
    ## # ... with 20 more rows
…
